module games

go 1.17

require (
	entgo.io/ent v0.9.1
	github.com/google/uuid v1.3.0
	github.com/mattn/go-sqlite3 v1.14.9
)

require (
	github.com/go-bindata/go-bindata v1.0.1-0.20190711162640-ee3c2418e368 // indirect
	github.com/go-openapi/inflect v0.19.0 // indirect
	github.com/hedwigz/entviz v0.0.0-20211018071308-cbfafe399286 // indirect
	golang.org/x/mod v0.4.2 // indirect
	golang.org/x/sys v0.0.0-20210510120138-977fb7262007 // indirect
	golang.org/x/tools v0.1.5 // indirect
	golang.org/x/xerrors v0.0.0-20200804184101-5ec99f83aff1 // indirect
)
